<?xml version="1.0" encoding="UTF-8" standalone="no"?>
<!-- Created with Inkscape (http://www.inkscape.org/) -->

<svg
   xmlns:dc="http://purl.org/dc/elements/1.1/"
   xmlns:cc="http://creativecommons.org/ns#"
   xmlns:rdf="http://www.w3.org/1999/02/22-rdf-syntax-ns#"
   xmlns:svg="http://www.w3.org/2000/svg"
   xmlns="http://www.w3.org/2000/svg"
   xmlns:sodipodi="http://sodipodi.sourceforge.net/DTD/sodipodi-0.dtd"
   xmlns:inkscape="http://www.inkscape.org/namespaces/inkscape"
   id="svg2"
   version="1.1"
   inkscape:version="0.48.4 r9939"
   sodipodi:docname="theincredibleowldoctor.svg"
   width="246.31096"
   height="293.93961">
  <defs
     id="defs4">
    <inkscape:path-effect
       effect="spiro"
       id="path-effect4111"
       is_visible="true" />
    <inkscape:path-effect
       effect="spiro"
       id="path-effect4107"
       is_visible="true" />
    <inkscape:path-effect
       effect="spiro"
       id="path-effect4086"
       is_visible="true" />
    <inkscape:path-effect
       effect="spiro"
       id="path-effect4067"
       is_visible="true" />
    <inkscape:path-effect
       effect="spiro"
       id="path-effect4026"
       is_visible="true" />
    <inkscape:path-effect
       effect="spiro"
       id="path-effect3790"
       is_visible="true" />
    <inkscape:path-effect
       effect="spiro"
       id="path-effect2991"
       is_visible="true" />
  </defs>
  <sodipodi:namedview
     id="base"
     pagecolor="#ffffff"
     bordercolor="#666666"
     borderopacity="1.0"
     inkscape:pageopacity="0.0"
     inkscape:pageshadow="2"
     inkscape:zoom="1.2999921"
     inkscape:document-units="px"
     inkscape:current-layer="layer1"
     showgrid="false"
     inkscape:window-width="1680"
     inkscape:window-height="963"
     inkscape:window-x="0"
     inkscape:window-y="27"
     inkscape:window-maximized="1"
     fit-margin-top="5"
     fit-margin-left="5"
     fit-margin-right="5"
     fit-margin-bottom="5"
     borderlayer="true"
     inkscape:cx="209.19345"
     inkscape:cy="84.955422" />
  <metadata
     id="metadata7">
    <rdf:RDF>
      <cc:Work
         rdf:about="">
        <dc:format>image/svg+xml</dc:format>
        <dc:type
           rdf:resource="http://purl.org/dc/dcmitype/StillImage" />
        <dc:title />
      </cc:Work>
    </rdf:RDF>
  </metadata>
  <g
     inkscape:label="Ebene 1"
     inkscape:groupmode="layer"
     id="layer1"
     transform="translate(-253.79301,-284.74313)">
    <path
       style="fill:#ffb71e;fill-opacity:1;stroke:none"
       d="m 400.31958,548.88907 c 0.40618,11.98239 14.51995,24.73216 14.51995,24.73216 l 6.41884,-17.80743 14.40954,12.90045 4.62826,-16.2982 15.41521,12.99925 c 0,0 8.37949,-14.55816 2.20551,-26.81569 -11.95736,-23.73958 -58.40643,-13.58006 -57.59731,10.28946 z"
       id="path4024"
       inkscape:connector-curvature="0"
       sodipodi:nodetypes="scccccss" />
    <path
       style="fill:#ffb71e;fill-opacity:1;stroke:none"
       d="m 353.68604,548.95056 c -0.40618,11.98239 -14.51995,24.73216 -14.51995,24.73216 l -6.41884,-17.80743 -14.40954,12.90045 -4.62826,-16.2982 -15.41521,12.99925 c 0,0 -8.37949,-14.55816 -2.20551,-26.81569 11.95736,-23.73958 58.40643,-13.58006 57.59731,10.28946 z"
       id="path4024-5"
       inkscape:connector-curvature="0"
       sodipodi:nodetypes="scccccss" />
    <path
       style="fill:#671100;fill-opacity:1;stroke:none"
       d="m 258.7948,481.68989 c 0.41441,82.07509 235.76703,82.3566 236.3049,4.4965 0.37216,-53.87332 -23.67229,-99.18174 -43.28456,-144.79362 l 30.9949,-41.48815 c -18.40977,-3.37657 -33.26221,0.42548 -49.96622,14.36719 -48.56361,-38.08115 -75.61799,-27.38315 -113.01885,1.90864 -19.13412,-20.01622 -34.19312,-17.9251 -51.93109,-16.82337 l 32.40591,42.5741 c -18.31947,43.63324 -41.74259,92.70226 -41.50499,139.75871 z"
       id="path2989"
       inkscape:connector-curvature="0"
       sodipodi:nodetypes="ssccccccs" />
    <path
       style="fill:#ffb71e;fill-opacity:1;stroke:none"
       d="m 378.14017,428.78108 c -10.26871,-9.9693 -24.11295,-27.88316 -24.41135,-34.99071 -0.95084,-22.64767 48.3842,-18.93065 49.13939,-2.05771 0.65709,14.68145 -10.91019,25.04124 -24.72804,37.04842"
       id="path3788"
       inkscape:connector-curvature="0"
       sodipodi:nodetypes="cssc" />
    <g
       id="g3813"
       transform="translate(-4.7994001,0)">
      <path
         d="m 366.19421,355.96924 c 0,10.33748 -7.95043,18.71766 -17.75778,18.71766 -9.80735,0 -17.75778,-8.38018 -17.75778,-18.71766 0,-10.33748 7.95043,-18.71766 17.75778,-18.71766 9.80735,0 17.75778,8.38018 17.75778,18.71766 z"
         sodipodi:ry="18.717661"
         sodipodi:rx="17.75778"
         sodipodi:cy="355.96924"
         sodipodi:cx="348.43643"
         id="path3807"
         style="fill:#ffffff;fill-opacity:1;fill-rule:nonzero;stroke:none"
         sodipodi:type="arc" />
      <path
         d="m 357.07535,357.88898 c 0,5.8314 -3.86777,10.55868 -8.63892,10.55868 -4.77114,0 -8.63892,-4.72728 -8.63892,-10.55868 0,-5.8314 3.86778,-10.55868 8.63892,-10.55868 4.77115,0 8.63892,4.72728 8.63892,10.55868 z"
         sodipodi:ry="10.558681"
         sodipodi:rx="8.6389198"
         sodipodi:cy="357.88898"
         sodipodi:cx="348.43643"
         id="path3811"
         style="fill:#285828;fill-opacity:1;fill-rule:nonzero;stroke:none"
         sodipodi:type="arc" />
    </g>
    <g
       transform="matrix(-1,0,0,1,762.14472,0.95987346)"
       id="g3813-4">
      <path
         d="m 366.19421,355.96924 c 0,10.33748 -7.95043,18.71766 -17.75778,18.71766 -9.80735,0 -17.75778,-8.38018 -17.75778,-18.71766 0,-10.33748 7.95043,-18.71766 17.75778,-18.71766 9.80735,0 17.75778,8.38018 17.75778,18.71766 z"
         sodipodi:ry="18.717661"
         sodipodi:rx="17.75778"
         sodipodi:cy="355.96924"
         sodipodi:cx="348.43643"
         id="path3807-4"
         style="fill:#ffffff;fill-opacity:1;fill-rule:nonzero;stroke:none"
         sodipodi:type="arc" />
      <path
         d="m 357.07535,357.88898 c 0,5.8314 -3.86777,10.55868 -8.63892,10.55868 -4.77114,0 -8.63892,-4.72728 -8.63892,-10.55868 0,-5.8314 3.86778,-10.55868 8.63892,-10.55868 4.77115,0 8.63892,4.72728 8.63892,10.55868 z"
         sodipodi:ry="10.558681"
         sodipodi:rx="8.6389198"
         sodipodi:cy="357.88898"
         sodipodi:cx="348.43643"
         id="path3811-1"
         style="fill:#285828;fill-opacity:1;fill-rule:nonzero;stroke:none"
         sodipodi:type="arc" />
    </g>
    <path
       style="fill:#b73e26;fill-opacity:1;stroke:none"
       d="m 282.87399,476.42051 c -3.1537,-3.75866 -7.4055,-10.51262 -7.49714,-13.19233 -0.29202,-8.53871 14.85961,-7.13731 15.09154,-0.77581 0.2018,5.53526 -3.3507,9.44115 -7.5944,13.96814"
       id="path3788-3"
       inkscape:connector-curvature="0"
       sodipodi:nodetypes="cssc"
       inkscape:transform-center-x="-23.997"
       inkscape:transform-center-y="9.5851352" />
    <path
       style="fill:#b73e26;fill-opacity:1;stroke:none"
       d="m 321.02922,519.61511 c -3.1537,-3.75866 -7.4055,-10.51262 -7.49714,-13.19233 -0.29202,-8.53871 14.85961,-7.13731 15.09154,-0.77581 0.2018,5.53526 -3.3507,9.44115 -7.5944,13.96814"
       id="path3788-3-7"
       inkscape:connector-curvature="0"
       sodipodi:nodetypes="cssc"
       inkscape:transform-center-x="-23.997"
       inkscape:transform-center-y="9.5851352" />
    <path
       style="fill:#b73e26;fill-opacity:1;stroke:none"
       d="m 343.10646,492.25853 c -3.1537,-3.75866 -7.4055,-10.51262 -7.49714,-13.19233 -0.29202,-8.53871 14.85961,-7.13731 15.09154,-0.77581 0.2018,5.53526 -3.3507,9.44115 -7.5944,13.96814"
       id="path3788-3-9"
       inkscape:connector-curvature="0"
       sodipodi:nodetypes="cssc"
       inkscape:transform-center-x="-23.997"
       inkscape:transform-center-y="9.5851352" />
    <path
       style="fill:#b73e26;fill-opacity:1;stroke:none"
       d="m 439.5744,485.53937 c -3.1537,-3.75866 -7.4055,-10.51262 -7.49714,-13.19233 -0.29202,-8.53871 14.85961,-7.13731 15.09154,-0.77581 0.2018,5.53526 -3.3507,9.44115 -7.5944,13.96814"
       id="path3788-3-6"
       inkscape:connector-curvature="0"
       sodipodi:nodetypes="cssc"
       inkscape:transform-center-x="-23.997"
       inkscape:transform-center-y="9.5851352" />
    <path
       style="fill:#b73e26;fill-opacity:1;stroke:none"
       d="m 450.61302,447.14417 c -3.1537,-3.75866 -7.4055,-10.51262 -7.49714,-13.19233 -0.29202,-8.53871 14.85961,-7.13731 15.09154,-0.77581 0.2018,5.53526 -3.3507,9.44115 -7.5944,13.96814"
       id="path3788-3-72"
       inkscape:connector-curvature="0"
       sodipodi:nodetypes="cssc"
       inkscape:transform-center-x="-23.997"
       inkscape:transform-center-y="9.5851352" />
    <path
       style="fill:#b73e26;fill-opacity:1;stroke:none"
       d="m 467.89086,476.42051 c -3.1537,-3.75866 -7.4055,-10.51262 -7.49714,-13.19233 -0.29202,-8.53871 14.85961,-7.13731 15.09154,-0.77581 0.2018,5.53526 -3.3507,9.44115 -7.5944,13.96814"
       id="path3788-3-2"
       inkscape:connector-curvature="0"
       sodipodi:nodetypes="cssc"
       inkscape:transform-center-x="-23.997"
       inkscape:transform-center-y="9.5851352" />
    <path
       style="fill:#b73e26;fill-opacity:1;stroke:none"
       d="m 430.45554,521.53487 c -3.1537,-3.75866 -7.4055,-10.51262 -7.49714,-13.19233 -0.29202,-8.53871 14.85961,-7.13731 15.09154,-0.77581 0.2018,5.53526 -3.3507,9.44115 -7.5944,13.96814"
       id="path3788-3-5"
       inkscape:connector-curvature="0"
       sodipodi:nodetypes="cssc"
       inkscape:transform-center-x="-23.997"
       inkscape:transform-center-y="9.5851352" />
    <path
       style="fill:#b73e26;fill-opacity:1;stroke:none"
       d="m 394.93998,527.77409 c -3.1537,-3.75866 -7.4055,-10.51262 -7.49714,-13.19233 -0.29202,-8.53871 14.85961,-7.13731 15.09154,-0.77581 0.2018,5.53526 -3.3507,9.44115 -7.5944,13.96814"
       id="path3788-3-61"
       inkscape:connector-curvature="0"
       sodipodi:nodetypes="cssc"
       inkscape:transform-center-x="-23.997"
       inkscape:transform-center-y="9.5851352" />
    <path
       style="fill:#b73e26;fill-opacity:1;stroke:none"
       d="m 357.9846,525.37439 c -3.1537,-3.75866 -7.4055,-10.51262 -7.49714,-13.19233 -0.29202,-8.53871 14.85961,-7.13731 15.09154,-0.77581 0.2018,5.53526 -3.3507,9.44115 -7.5944,13.96814"
       id="path3788-3-70"
       inkscape:connector-curvature="0"
       sodipodi:nodetypes="cssc"
       inkscape:transform-center-x="-23.997"
       inkscape:transform-center-y="9.5851352" />
    <path
       style="fill:#b73e26;fill-opacity:1;stroke:none"
       d="m 293.1927,508.57649 c -3.1537,-3.75866 -7.4055,-10.51262 -7.49714,-13.19233 -0.29202,-8.53871 14.85961,-7.13731 15.09154,-0.77581 0.2018,5.53526 -3.3507,9.44115 -7.5944,13.96814"
       id="path3788-3-4"
       inkscape:connector-curvature="0"
       sodipodi:nodetypes="cssc"
       inkscape:transform-center-x="-23.997"
       inkscape:transform-center-y="9.5851352" />
    <path
       style="fill:#b73e26;fill-opacity:1;stroke:none"
       d="m 313.35018,484.57949 c -3.1537,-3.75866 -7.4055,-10.51262 -7.49714,-13.19233 -0.29202,-8.53871 14.85961,-7.13731 15.09154,-0.77581 0.2018,5.53526 -3.3507,9.44115 -7.5944,13.96814"
       id="path3788-3-51"
       inkscape:connector-curvature="0"
       sodipodi:nodetypes="cssc"
       inkscape:transform-center-x="-23.997"
       inkscape:transform-center-y="9.5851352" />
    <path
       style="fill:#b73e26;fill-opacity:1;stroke:none"
       d="m 408.3783,494.17829 c -3.1537,-3.75866 -7.4055,-10.51262 -7.49714,-13.19233 -0.29202,-8.53871 14.85961,-7.13731 15.09154,-0.77581 0.2018,5.53526 -3.3507,9.44115 -7.5944,13.96814"
       id="path3788-3-3"
       inkscape:connector-curvature="0"
       sodipodi:nodetypes="cssc"
       inkscape:transform-center-x="-23.997"
       inkscape:transform-center-y="9.5851352" />
    <path
       style="fill:#b73e26;fill-opacity:1;stroke:none"
       d="m 376.70226,496.57799 c -3.1537,-3.75866 -7.4055,-10.51262 -7.49714,-13.19233 -0.29202,-8.53871 14.85961,-7.13731 15.09154,-0.77581 0.2018,5.53526 -3.3507,9.44115 -7.5944,13.96814"
       id="path3788-3-69"
       inkscape:connector-curvature="0"
       sodipodi:nodetypes="cssc"
       inkscape:transform-center-x="-23.997"
       inkscape:transform-center-y="9.5851352" />
    <path
       style="fill:#b73e26;fill-opacity:1;stroke:none"
       d="m 459.25194,509.53637 c -3.1537,-3.75866 -7.4055,-10.51262 -7.49714,-13.19233 -0.29202,-8.53871 14.85961,-7.13731 15.09154,-0.77581 0.2018,5.53526 -3.3507,9.44115 -7.5944,13.96814"
       id="path3788-3-98"
       inkscape:connector-curvature="0"
       sodipodi:nodetypes="cssc"
       inkscape:transform-center-x="-23.997"
       inkscape:transform-center-y="9.5851352" />
    <path
       style="fill:#b73e26;fill-opacity:1;stroke:none"
       d="m 419.41692,459.14267 c -3.1537,-3.75866 -7.4055,-10.51262 -7.49714,-13.19233 -0.29202,-8.53871 14.85961,-7.13731 15.09154,-0.77581 0.2018,5.53526 -3.3507,9.44115 -7.5944,13.96814"
       id="path3788-3-55"
       inkscape:connector-curvature="0"
       sodipodi:nodetypes="cssc"
       inkscape:transform-center-x="-23.997"
       inkscape:transform-center-y="9.5851352" />
    <path
       style="fill:#b73e26;fill-opacity:1;stroke:none"
       d="m 327.26844,458.18279 c -3.1537,-3.75866 -7.4055,-10.51262 -7.49714,-13.19233 -0.29202,-8.53871 14.85961,-7.13731 15.09154,-0.77581 0.2018,5.53526 -3.3507,9.44115 -7.5944,13.96814"
       id="path3788-3-49"
       inkscape:connector-curvature="0"
       sodipodi:nodetypes="cssc"
       inkscape:transform-center-x="-23.997"
       inkscape:transform-center-y="9.5851352" />
    <path
       style="fill:#b73e26;fill-opacity:1;stroke:none"
       d="m 297.9921,448.58399 c -3.1537,-3.75866 -7.4055,-10.51262 -7.49714,-13.19233 -0.29202,-8.53871 14.85961,-7.13731 15.09154,-0.77581 0.2018,5.53526 -3.3507,9.44115 -7.5944,13.96814"
       id="path3788-3-95"
       inkscape:connector-curvature="0"
       sodipodi:nodetypes="cssc"
       inkscape:transform-center-x="-23.997"
       inkscape:transform-center-y="9.5851352" />
    <path
       style="fill:#b73e26;fill-opacity:1;stroke:none"
       d="m 355.5849,462.98219 c -3.1537,-3.75866 -7.4055,-10.51262 -7.49714,-13.19233 -0.29202,-8.53871 14.85961,-7.13731 15.09154,-0.77581 0.2018,5.53526 -3.3507,9.44115 -7.5944,13.96814"
       id="path3788-3-39"
       inkscape:connector-curvature="0"
       sodipodi:nodetypes="cssc"
       inkscape:transform-center-x="-23.997"
       inkscape:transform-center-y="9.5851352" />
    <path
       style="fill:#b73e26;fill-opacity:1;stroke:none"
       d="m 389.66064,465.86183 c -3.1537,-3.75866 -7.4055,-10.51262 -7.49714,-13.19233 -0.29202,-8.53871 14.85961,-7.13731 15.09154,-0.77581 0.2018,5.53526 -3.3507,9.44115 -7.5944,13.96814"
       id="path3788-3-1"
       inkscape:connector-curvature="0"
       sodipodi:nodetypes="cssc"
       inkscape:transform-center-x="-23.997"
       inkscape:transform-center-y="9.5851352" />
    <path
       style="font-size:medium;font-style:normal;font-variant:normal;font-weight:normal;font-stretch:normal;text-indent:0;text-align:start;text-decoration:none;line-height:normal;letter-spacing:normal;word-spacing:normal;text-transform:none;direction:ltr;block-progression:tb;writing-mode:lr-tb;text-anchor:start;baseline-shift:baseline;color:#000000;fill:#000000;fill-opacity:1;stroke:none;stroke-width:12.60000038;marker:none;visibility:visible;display:inline;overflow:visible;enable-background:accumulate;font-family:Sans;-inkscape-font-specification:Sans"
       d="m 467.32802,320.62542 -7.8999,10.56986 c 6.34177,-0.023 9.12907,1.61465 10.97808,3.33597 1.84901,1.72132 2.83506,4.15588 2.8125,8.34375 -0.0451,8.37575 -5.56264,22.21194 -15.03125,36.0625 -18.93723,27.70113 -53.16265,55.364 -78.3125,56 -8.38872,0.21214 -22.03125,-5.69643 -35.75,-15.65625 -13.71875,-9.95982 -27.72491,-23.59146 -38.625,-37.21875 -10.90009,-13.62729 -18.58788,-27.54509 -20.25,-36.375 -0.83106,-4.41496 -0.21235,-7.03151 0.84375,-8.46875 1.0561,-1.43724 2.31022,-3.33749 7.85402,-3.63314 L 286.2855,323.5195 c -6.78228,1.46203 -8.45954,3.90231 -10.34805,6.26175 -4.04413,5.05259 -4.27557,11.80561 -3.0625,18.25 2.42615,12.88877 11.16357,27.38183 22.78125,41.90625 11.61768,14.52442 26.23414,28.76586 41.0625,39.53125 12.75648,9.26121 25.52609,16.17869 37.625,17.71875 -0.14276,6.18658 0.5084,10.92435 1.125,14.9375 0.82926,5.39724 -0.49789,10.16463 -1.25496,16.84842 l 12.02219,0.38815 c 0.93305,-8.2375 2.47597,-13.89918 1.67027,-19.14282 -0.62029,-4.03713 -1.13941,-7.84896 -0.9375,-13.28125 31.10682,-4.41152 62.4585,-32.83848 81.625,-60.875 10.28054,-15.03824 16.11844,-29.96648 16.18934,-43.125 0.0355,-6.57926 -1.98889,-12.90957 -6.84375,-17.44822 -5.28563,-4.94137 -7.40164,-3.93881 -10.61127,-4.86386 z"
       id="path4084"
       inkscape:connector-curvature="0"
       sodipodi:nodetypes="ccssssssssccsssscsccscsssc" />
    <!--<path
       style="fill:none;stroke:#000000;stroke-width:1.60000014;stroke-linecap:butt;stroke-linejoin:miter;stroke-miterlimit:4;stroke-opacity:1;stroke-dasharray:none"
       d="m 381.07237,443.31831 c 0.3759,1.73117 0.5375,3.50876 0.47994,5.27934 -0.005,0.15998 -0.0122,0.32034 0,0.47994 0.0503,0.65946 0.422,1.26093 0.47994,1.91976 0.028,0.31885 0,0.6398 0,0.95988 l 0,1.43982 0,3.83952 0,10.55868 0,6.23922 0,1.91976 c 0,0.15998 0,0.31996 0,0.47994 C -1.4409717e14,2.8819435e14 -1.686681e14,6.339335e14 -6.677601e13,9.3960977e14 3.5116078e13,1.245286e15 2.6221631e14,1.5071348e15 5.5041066e14,1.651232e15 c 2.8819435e14,1.440972e14 6.3393354e14,1.686681e14 9.3960974e14,6.6776e13 3.056763e14,-1.018921e14 5.675251e14,-3.289923e14 7.116222e14,-6.171867e14 1.440972e14,-2.8819433e14 1.686681e14,-6.3393348e14 6.6776e13,-9.3960975e14 -1.01892e14,-3.0567627e14 -3.289923e14,-5.6752504e14 -6.171866e14,-7.1162221e14 -2.881944e14,-1.4409717e14 -6.339335e14,-1.686681e14 -9.3960979e14,-6.677601e13 C 4.0594594e14,-5.1529458e14 1.4409717e14,-2.8819435e14 382.03225,475.95423"
       id="path4105"
       inkscape:path-effect="#path-effect4107"
       inkscape:original-d="m 381.07237,443.31831 c 0.65111,1.73221 0.47994,3.4754 0.47994,5.27934 0,0.15998 -0.0314,0.32307 0,0.47994 0.12936,0.64681 0.3715,1.26912 0.47994,1.91976 0.0526,0.31561 0,0.63992 0,0.95988 0,0.47994 0,0.95988 0,1.43982 0,1.27984 0,2.55968 0,3.83952 0,3.51956 0,7.03912 0,10.55868 0,2.07974 0,4.15948 0,6.23922 0,0.63992 0,1.27984 0,1.91976 0,0.15998 0.15998,0.47994 0,0.47994 -0.15998,0 0,-0.31996 0,-0.47994"
       inkscape:connector-curvature="0" />-->
    <path
       sodipodi:type="arc"
       style="fill:#cacaca;fill-opacity:1;fill-rule:nonzero;stroke:none"
       id="path4130"
       sodipodi:cx="381.55231"
       sodipodi:cy="492.27219"
       sodipodi:rx="20.15748"
       sodipodi:ry="18.717661"
       d="m 401.70979,492.27219 c 0,10.33747 -9.02481,18.71766 -20.15748,18.71766 -11.13267,0 -20.15748,-8.38019 -20.15748,-18.71766 0,-10.33748 9.02481,-18.71766 20.15748,-18.71766 11.13267,0 20.15748,8.38018 20.15748,18.71766 z"
       transform="translate(0.50405816,-2.4870398)" />
  </g>
</svg>
